0.801
0.127
0.153
0.072
0.132
0.061
0.888
0.085
0.538
0.214
0.234
0.1
0.117
0.139
0.058
0.479
0.064
0.099
0.205
0.071
0.054
0.016
0.059
0.094
0.386
0.038
0.401
0.042
0.065
0.208
0.28
0.155
0.629
0.066
0.117
0.183
0.071
0.074
0.15
0.509
0.088
0.326
0.059
0.224
0.36
0.576
0.186
0.201
0.342
0.704
0.182
0.264
0.221
0.268
0.543
0.102
0.085
0.423
0.621
0.407
0.256
0.181
0.103
0.201
0.232
0.243
0.087
0.131
0.154
0.179
0.187
0.487
0.22
0.202
0.188
0.164
0.318
0.315
0.317
0.173
0.055
0.179
0.304
0.094
0.238
0.487
0.276
0.247
0.12
0.109
0.395
0.135
0.089
0.185
0.07
0.072
0.077
0.127
0.229
0.412
0.379
0.202
0.258
0.361
0.353
0.465
0.226
0.208
0.326
0.202
0.415
0.212
0.145
0.276
0.173
0.316
0.377
0.095
0.284
0.078
0.259
0.463
0.185
0.223
0.077
0.197
0.354
0.223
0.242
0.273
0.234
0.288
0.049
0.059
0.112
0.052
0.181
0.116
0.115
0.488
0.207
0.337
0.186
0.266
0.26
0.145
0.196
0.138
0.095
0.091
0.066
0.114
0.14
0.118
0.223
0.048
0.074
0.109
0.158
0.121
0.076
0.195
0.048
0.237
0.148
0.2
0.134
0.121
0.185
0.094
0.065
0.241
0.153
0.121
0.024
0.233
0.354
0.031
0.092
0.456
0.399
0.177
0.025
0.029
0.067
0.061
0.044
0.253
0.073
0.035
0.136
0.041
0.061
0.082
0.065
0.134
0.204
0.02
0.016
0.047
0.097
0.11
0.092
0.05
0.133
0.198
0.077
0.11
0.087
0.139
0.173
0.036
0.177
0.156
0.101
0.088
0.013
0.246
0.117
0.161
0.039
0.042
0.092